TEAM A Analitik Labı - İnsanların Mutluluk Kaynakları Üzerine Bir İnceleme
…
# Print the data to check the columns
print(data)

# A tibble: 24 × 8
   Cinsiyet, yaş grubu ve eğit…¹    ...2    ...3    ...4    ...5    ...6    ...7
   <chr>                           <dbl>   <dbl>   <dbl>   <dbl>   <dbl>   <dbl>
 1 Level of life satisfaction(1…   NA      NA      NA      NA      NA      NA   
 2 <NA>                            NA      NA      NA      NA      NA      NA   
 3 <NA>                          2017    2018    2019    2020    2021    2022   
 4 Toplam-Total                     5.44    5.41    5.51    5.36    5.33    5.47
 5 Erkek-Male                       5.41    5.34    5.46    5.27    5.19    5.42
 6 Kadın-Female                     5.48    5.47    5.55    5.45    5.46    5.51
 7 Yaş grubu-Age group             NA      NA      NA      NA      NA      NA   
 8 18-24                            5.73    5.65    5.61    5.25    5.18    5.32
 9 25-34                            5.64    5.46    5.52    5.33    5.29    5.38
10 35-44                            5.48    5.49    5.70    5.36    5.29    5.44
# ℹ 14 more rows
# ℹ abbreviated name:
#   ¹​`Cinsiyet, yaş grubu ve eğitim duruma göre yaşam memnuniyet düzeyi(1), 2017-2023`
# ℹ 1 more variable: ...8 <dbl>
…
# Print the data to check the columns
print(data1)

# A tibble: 22 × 13
   Mutluluk kaynağı, 2013-…¹ ...2    ...3   ...4    ...5    ...6    ...7    ...8
   <chr>                     <chr>  <dbl>  <dbl>   <dbl>   <dbl>   <dbl>   <dbl>
 1 "Source of happiness, 20… <NA>    NA     NA     NA      NA      NA      NA   
 2  <NA>                     <NA>    NA     NA     NA      NA      NA      NA   
 3  <NA>                     <NA>  2013   2014   2015    2016    2017    2018   
 4 "Mutluluk kaynağı olan k… <NA>    NA     NA     NA      NA      NA      NA   
 5  <NA>                     Tüm …   73     73.3   72.3    70.2    70.6    74.2 
 6  <NA>                     Çocu…   12.9   13.4   13.1    15.1    14.3    12.9 
 7  <NA>                     Eş-S…    5.2    5      5.31    4.73    5.35    3.62
 8  <NA>                     Anne…    2.9    3.1    2.76    3.64    3.19    2.73
 9  <NA>                     Kend…    2.5    1.9    2.75    2.71    3.42    3.33
10  <NA>                     Toru…    1.7    1.4    1.88    1.92    1.89    1.82
# ℹ 12 more rows
# ℹ abbreviated name: ¹​`Mutluluk kaynağı, 2013-2023`
# ℹ 5 more variables: ...9 <dbl>, ...10 <dbl>, ...11 <dbl>, ...12 <dbl>,
#   ...13 <chr>
…
